\relax 
\catcode`"\active
\select@language{polish}
\@writefile{toc}{\select@language{polish}}
\@writefile{lof}{\select@language{polish}}
\@writefile{lot}{\select@language{polish}}
\gdef \LT@i {\LT@entry 
    {2}{293.12912pt}\LT@entry 
    {1}{56.76543pt}\LT@entry 
    {1}{61.32956pt}\LT@entry 
    {1}{56.76543pt}\LT@entry 
    {1}{65.91862pt}}
