#FIG 3.2  Produced by xfig version 3.2.5b
Landscape
Center
Inches
Letter  
100.00
Single
-2
1200 2
0 32 #000080
0 33 #000088
0 34 #000090
0 35 #000098
0 36 #0000a0
0 37 #0000a8
0 38 #0000b0
0 39 #0000b8
0 40 #0000c0
0 41 #0000c8
0 42 #0000d0
0 43 #0000d8
0 44 #0000e0
0 45 #0000e8
0 46 #0000f0
0 47 #0001f7
0 48 #0002fe
0 49 #0009ff
0 50 #0011ff
0 51 #0019ff
0 52 #0021ff
0 53 #0029ff
0 54 #0031ff
0 55 #0039ff
0 56 #0041ff
0 57 #0049ff
0 58 #0051ff
0 59 #0059ff
0 60 #0061ff
0 61 #0069ff
0 62 #0071ff
0 63 #0079ff
0 64 #0082ff
0 65 #008aff
0 66 #0092ff
0 67 #009aff
0 68 #00a2ff
0 69 #00aaff
0 70 #00b2ff
0 71 #00baff
0 72 #00c2ff
0 73 #00caff
0 74 #00d2ff
0 75 #00daff
0 76 #00e2ff
0 77 #00eaff
0 78 #00f2ff
0 79 #02f8fd
0 80 #05fdfa
0 81 #0bfff4
0 82 #13ffec
0 83 #1bffe4
0 84 #23ffdc
0 85 #2bffd4
0 86 #33ffcc
0 87 #3bffc4
0 88 #43ffbc
0 89 #4bffb4
0 90 #53ffac
0 91 #5bffa4
0 92 #63ff9c
0 93 #6bff94
0 94 #73ff8c
0 95 #7bff84
0 96 #84ff7b
0 97 #8cff73
0 98 #94ff6b
0 99 #9cff63
0 100 #a4ff5b
0 101 #acff53
0 102 #b4ff4b
0 103 #bcff43
0 104 #c4ff3b
0 105 #ccff33
0 106 #d4ff2b
0 107 #dcff23
0 108 #e4ff1b
0 109 #ecff13
0 110 #f4ff0b
0 111 #fafd05
0 112 #fdf802
0 113 #fff200
0 114 #ffea00
0 115 #ffe200
0 116 #ffda00
0 117 #ffd200
0 118 #ffca00
0 119 #ffc200
0 120 #ffba00
0 121 #ffb200
0 122 #ffaa00
0 123 #ffa200
0 124 #ff9a00
0 125 #ff9200
0 126 #ff8a00
0 127 #ff8200
0 128 #ff7900
0 129 #ff7100
0 130 #ff6900
0 131 #ff6100
0 132 #ff5900
0 133 #ff5100
0 134 #ff4900
0 135 #ff4100
0 136 #ff3900
0 137 #ff3100
0 138 #ff2900
0 139 #ff2100
0 140 #ff1900
0 141 #ff1100
0 142 #ff0900
0 143 #fe0200
0 144 #f70100
0 145 #f00000
0 146 #e80000
0 147 #e00000
0 148 #d80000
0 149 #d00000
0 150 #c80000
0 151 #c00000
0 152 #b80000
0 153 #b00000
0 154 #a80000
0 155 #a00000
0 156 #980000
0 157 #900000
0 158 #880000
0 159 #800000
6 2448 1741 9887 7608
# Begin plot #1
2 1 0 1 4 4 10 0 -1 0.000 0 0 0 0 0 5
	 2448 1915 4308 7407 6168 1988 8027 7298 9887 2131
-6
2 1 0 1 -1 -1 10 0 -1 0.000 0 0 0 0 0 2
	 2448 7608 2553 7608
2 1 0 1 -1 -1 10 0 -1 0.000 0 0 0 0 0 2
	 2448 6630 2553 6630
2 1 0 1 -1 -1 10 0 -1 0.000 0 0 0 0 0 2
	 2448 5652 2553 5652
2 1 0 1 -1 -1 10 0 -1 0.000 0 0 0 0 0 2
	 2448 4675 2553 4675
2 1 0 1 -1 -1 10 0 -1 0.000 0 0 0 0 0 2
	 2448 3697 2553 3697
2 1 0 1 -1 -1 10 0 -1 0.000 0 0 0 0 0 2
	 2448 2719 2553 2719
2 1 0 1 -1 -1 10 0 -1 0.000 0 0 0 0 0 2
	 2448 1741 2553 1741
2 1 0 1 -1 -1 10 0 -1 0.000 0 0 0 0 0 2
	 2448 7608 2448 7503
2 1 0 1 -1 -1 10 0 -1 0.000 0 0 0 0 0 2
	 3378 7608 3378 7503
2 1 0 1 -1 -1 10 0 -1 0.000 0 0 0 0 0 2
	 4308 7608 4308 7503
2 1 0 1 -1 -1 10 0 -1 0.000 0 0 0 0 0 2
	 5238 7608 5238 7503
2 1 0 1 -1 -1 10 0 -1 0.000 0 0 0 0 0 2
	 6168 7608 6168 7503
2 1 0 1 -1 -1 10 0 -1 0.000 0 0 0 0 0 2
	 7097 7608 7097 7503
2 1 0 1 -1 -1 10 0 -1 0.000 0 0 0 0 0 2
	 8027 7608 8027 7503
2 1 0 1 -1 -1 10 0 -1 0.000 0 0 0 0 0 2
	 8957 7608 8957 7503
2 1 0 1 -1 -1 10 0 -1 0.000 0 0 0 0 0 2
	 9887 7608 9887 7503
2 1 0 1 -1 -1 10 0 -1 0.000 0 0 0 0 0 3
	 2448 1741 2448 7608 9887 7608
4 2 -1 0 -1 0 10 0.0000 4 105 375 2373 7670 -0.15\001
4 2 -1 0 -1 0 10 0.0000 4 105 285 2373 6692 -0.1\001
4 2 -1 0 -1 0 10 0.0000 4 105 375 2373 5714 -0.05\001
4 2 -1 0 -1 0 10 0.0000 4 105 90 2373 4737 0\001
4 2 -1 0 -1 0 10 0.0000 4 105 315 2373 3759 0.05\001
4 2 -1 0 -1 0 10 0.0000 4 105 225 2373 2781 0.1\001
4 2 -1 0 -1 0 10 0.0000 4 105 315 2373 1803 0.15\001
4 1 -1 0 -1 0 10 0.0000 4 105 90 2448 7795 1\001
4 1 -1 0 -1 0 10 0.0000 4 105 225 3378 7795 1.5\001
4 1 -1 0 -1 0 10 0.0000 4 105 90 4308 7795 2\001
4 1 -1 0 -1 0 10 0.0000 4 105 225 5238 7795 2.5\001
4 1 -1 0 -1 0 10 0.0000 4 105 90 6168 7795 3\001
4 1 -1 0 -1 0 10 0.0000 4 105 225 7097 7795 3.5\001
4 1 -1 0 -1 0 10 0.0000 4 105 90 8027 7795 4\001
4 1 -1 0 -1 0 10 0.0000 4 105 225 8957 7795 4.5\001
4 1 -1 0 -1 0 10 0.0000 4 105 90 9887 7795 5\001
4 1 -1 0 -1 0 10 1.5710 4 105 120 1891 4675 Y\001
4 1 -1 0 -1 0 10 0.0000 4 105 120 6167 7982 X\001
4 1 -1 0 -1 0 10 0.0000 4 135 990 6167 1615 f(x)=sin(3x)/x\001
4 0 0 50 -1 0 12 0.0000 6 180 675 5625 825 \\funckja\001
