\relax 
\catcode`"\active
\select@language{polish}
\@writefile{toc}{\select@language{polish}}
\@writefile{lof}{\select@language{polish}}
\@writefile{lot}{\select@language{polish}}
\@writefile{lof}{\contentsline {figure}{\numberline {1}{\ignorespaces Rysunek z wzorami}}{1}}
\newlabel{fig:rys2}{{1}{1}}
