%!PS-Adobe-2.0 EPSF-2.0
%%Title: /home/marcin/Dokumenty/studia/ii_semestr/LaTeX/lab4/ex12/Diagram1.dia
%%Creator: Dia v0.97.2
%%CreationDate: Wed Apr 17 14:29:31 2013
%%For: marcin
%%Orientation: Portrait
%%Magnification: 1.0000
%%BoundingBox: 0 0 1298 342
%%BeginSetup
%%EndSetup
%%EndComments
%%BeginProlog
[ /.notdef /.notdef /.notdef /.notdef /.notdef /.notdef /.notdef /.notdef /.notdef /.notdef
/.notdef /.notdef /.notdef /.notdef /.notdef /.notdef /.notdef /.notdef /.notdef /.notdef
/.notdef /.notdef /.notdef /.notdef /.notdef /.notdef /.notdef /.notdef /.notdef /.notdef
/.notdef /.notdef /space /exclam /quotedbl /numbersign /dollar /percent /ampersand /quoteright
/parenleft /parenright /asterisk /plus /comma /hyphen /period /slash /zero /one
/two /three /four /five /six /seven /eight /nine /colon /semicolon
/less /equal /greater /question /at /A /B /C /D /E
/F /G /H /I /J /K /L /M /N /O
/P /Q /R /S /T /U /V /W /X /Y
/Z /bracketleft /backslash /bracketright /asciicircum /underscore /quoteleft /a /b /c
/d /e /f /g /h /i /j /k /l /m
/n /o /p /q /r /s /t /u /v /w
/x /y /z /braceleft /bar /braceright /asciitilde /.notdef /.notdef /.notdef
/.notdef /.notdef /.notdef /.notdef /.notdef /.notdef /.notdef /.notdef /.notdef /.notdef
/.notdef /.notdef /.notdef /.notdef /.notdef /.notdef /.notdef /.notdef /.notdef /.notdef
/.notdef /.notdef /.notdef /.notdef /.notdef /.notdef /.notdef /.notdef /.notdef /.notdef
/space /exclamdown /cent /sterling /currency /yen /brokenbar /section /dieresis /copyright
/ordfeminine /guillemotleft /logicalnot /hyphen /registered /macron /degree /plusminus /twosuperior /threesuperior
/acute /mu /paragraph /periodcentered /cedilla /onesuperior /ordmasculine /guillemotright /onequarter /onehalf
/threequarters /questiondown /Agrave /Aacute /Acircumflex /Atilde /Adieresis /Aring /AE /Ccedilla
/Egrave /Eacute /Ecircumflex /Edieresis /Igrave /Iacute /Icircumflex /Idieresis /Eth /Ntilde
/Ograve /Oacute /Ocircumflex /Otilde /Odieresis /multiply /Oslash /Ugrave /Uacute /Ucircumflex
/Udieresis /Yacute /Thorn /germandbls /agrave /aacute /acircumflex /atilde /adieresis /aring
/ae /ccedilla /egrave /eacute /ecircumflex /edieresis /igrave /iacute /icircumflex /idieresis
/eth /ntilde /ograve /oacute /ocircumflex /otilde /odieresis /divide /oslash /ugrave
/uacute /ucircumflex /udieresis /yacute /thorn /ydieresis] /isolatin1encoding exch def
/cp {closepath} bind def
/c {curveto} bind def
/f {fill} bind def
/a {arc} bind def
/ef {eofill} bind def
/ex {exch} bind def
/gr {grestore} bind def
/gs {gsave} bind def
/sa {save} bind def
/rs {restore} bind def
/l {lineto} bind def
/m {moveto} bind def
/rm {rmoveto} bind def
/n {newpath} bind def
/s {stroke} bind def
/sh {show} bind def
/slc {setlinecap} bind def
/slj {setlinejoin} bind def
/slw {setlinewidth} bind def
/srgb {setrgbcolor} bind def
/rot {rotate} bind def
/sc {scale} bind def
/sd {setdash} bind def
/ff {findfont} bind def
/sf {setfont} bind def
/scf {scalefont} bind def
/sw {stringwidth pop} bind def
/tr {translate} bind def

/ellipsedict 8 dict def
ellipsedict /mtrx matrix put
/ellipse
{ ellipsedict begin
   /endangle exch def
   /startangle exch def
   /yrad exch def
   /xrad exch def
   /y exch def
   /x exch def   /savematrix mtrx currentmatrix def
   x y tr xrad yrad sc
   0 0 1 startangle endangle arc
   savematrix setmatrix
   end
} def

/mergeprocs {
dup length
3 -1 roll
dup
length
dup
5 1 roll
3 -1 roll
add
array cvx
dup
3 -1 roll
0 exch
putinterval
dup
4 2 roll
putinterval
} bind def
/dpi_x 300 def
/dpi_y 300 def
/conicto {
    /to_y exch def
    /to_x exch def
    /conic_cntrl_y exch def
    /conic_cntrl_x exch def
    currentpoint
    /p0_y exch def
    /p0_x exch def
    /p1_x p0_x conic_cntrl_x p0_x sub 2 3 div mul add def
    /p1_y p0_y conic_cntrl_y p0_y sub 2 3 div mul add def
    /p2_x p1_x to_x p0_x sub 1 3 div mul add def
    /p2_y p1_y to_y p0_y sub 1 3 div mul add def
    p1_x p1_y p2_x p2_y to_x to_y curveto
} bind def
/start_ol { gsave 1.1 dpi_x div dup scale} bind def
/end_ol { closepath fill grestore } bind def
28.346000 -28.346000 scale
-9.728570 -18.285400 translate
%%EndProlog


1.000000 1.000000 1.000000 srgb
n 15.437900 6.312130 m 15.437900 10.012130 l 23.437900 10.012130 l 23.437900 6.312130 l f
0.100000 slw
[] 0 sd
[] 0 sd
0 slj
0.000000 0.000000 0.000000 srgb
n 15.437900 6.312130 m 15.437900 10.012130 l 23.437900 10.012130 l 23.437900 6.312130 l cp s
gsave 17.826650 7.957130 translate 0.035278 -0.035278 scale
start_ol
1696 3047 moveto
1042 1280 lineto
2352 1280 lineto
1696 3047 lineto
1424 3520 moveto
1970 3520 lineto
3328 0 lineto
2827 0 lineto
2502 896 lineto
897 896 lineto
572 0 lineto
64 0 lineto
1424 3520 lineto
end_ol grestore 
gsave 18.263742 7.957130 translate 0.035278 -0.035278 scale
start_ol
2688 1646 moveto
2688 0 lineto
2240 0 lineto
2240 1632 lineto
2240 2001 2093 2184 conicto
1947 2368 1654 2368 conicto
1302 2368 1099 2146 conicto
896 1925 896 1542 conicto
896 0 lineto
448 0 lineto
448 2688 lineto
896 2688 lineto
896 2304 lineto
1053 2529 1266 2640 conicto
1479 2752 1757 2752 conicto
2217 2752 2452 2471 conicto
2688 2191 2688 1646 conicto
end_ol grestore 
gsave 18.668356 7.957130 translate 0.035278 -0.035278 scale
start_ol
1622 1344 moveto
1104 1344 904 1225 conicto
704 1106 704 818 conicto
704 589 854 454 conicto
1004 320 1262 320 conicto
1618 320 1833 572 conicto
2048 825 2048 1244 conicto
2048 1344 lineto
1622 1344 lineto
2496 1513 moveto
2496 0 lineto
2048 0 lineto
2048 384 lineto
1900 154 1679 45 conicto
1458 -64 1138 -64 conicto
733 -64 494 162 conicto
256 389 256 769 conicto
256 1213 555 1438 conicto
854 1664 1448 1664 conicto
2048 1664 lineto
2048 1712 lineto
2048 2025 1851 2196 conicto
1655 2368 1300 2368 conicto
1074 2368 860 2320 conicto
646 2272 448 2176 conicto
448 2560 lineto
687 2656 912 2704 conicto
1138 2752 1351 2752 conicto
1927 2752 2211 2444 conicto
2496 2137 2496 1513 conicto
end_ol grestore 
gsave 19.060485 7.957130 translate 0.035278 -0.035278 scale
start_ol
448 3712 moveto
896 3712 lineto
896 0 lineto
448 0 lineto
448 3712 lineto
end_ol grestore 
gsave 19.237813 7.957130 translate 0.035278 -0.035278 scale
start_ol
448 2688 moveto
896 2688 lineto
896 0 lineto
448 0 lineto
448 2688 lineto
448 3712 moveto
896 3712 lineto
896 3136 lineto
448 3136 lineto
448 3712 lineto
end_ol grestore 
gsave 19.415142 7.957130 translate 0.035278 -0.035278 scale
start_ol
256 2688 moveto
2304 2688 lineto
2304 2279 lineto
682 320 lineto
2304 320 lineto
2304 0 lineto
192 0 lineto
192 409 lineto
1819 2368 lineto
256 2368 lineto
256 2688 lineto
end_ol grestore 
gsave 19.749824 7.957130 translate 0.035278 -0.035278 scale
start_ol
1622 1344 moveto
1104 1344 904 1225 conicto
704 1106 704 818 conicto
704 589 854 454 conicto
1004 320 1262 320 conicto
1618 320 1833 572 conicto
2048 825 2048 1244 conicto
2048 1344 lineto
1622 1344 lineto
2496 1513 moveto
2496 0 lineto
2048 0 lineto
2048 384 lineto
1900 154 1679 45 conicto
1458 -64 1138 -64 conicto
733 -64 494 162 conicto
256 389 256 769 conicto
256 1213 555 1438 conicto
854 1664 1448 1664 conicto
2048 1664 lineto
2048 1712 lineto
2048 2025 1851 2196 conicto
1655 2368 1300 2368 conicto
1074 2368 860 2320 conicto
646 2272 448 2176 conicto
448 2560 lineto
687 2656 912 2704 conicto
1138 2752 1351 2752 conicto
1927 2752 2211 2444 conicto
2496 2137 2496 1513 conicto
end_ol grestore 
gsave 20.141953 7.957130 translate 0.035278 -0.035278 scale
start_ol
896 3456 moveto
896 2688 lineto
1792 2688 lineto
1792 2368 lineto
896 2368 lineto
896 902 lineto
896 572 984 478 conicto
1073 384 1345 384 conicto
1792 384 lineto
1792 0 lineto
1345 0 lineto
836 0 642 194 conicto
448 389 448 902 conicto
448 2368 lineto
128 2368 lineto
128 2688 lineto
448 2688 lineto
448 3456 lineto
896 3456 lineto
end_ol grestore 
gsave 20.391719 7.957130 translate 0.035278 -0.035278 scale
start_ol
1473 2368 moveto
1117 2368 910 2094 conicto
704 1820 704 1344 conicto
704 868 909 594 conicto
1115 320 1473 320 conicto
1827 320 2033 595 conicto
2240 870 2240 1344 conicto
2240 1816 2033 2092 conicto
1827 2368 1473 2368 conicto
1472 2752 moveto
2040 2752 2364 2378 conicto
2688 2005 2688 1344 conicto
2688 685 2364 310 conicto
2040 -64 1472 -64 conicto
902 -64 579 310 conicto
256 685 256 1344 conicto
256 2005 579 2378 conicto
902 2752 1472 2752 conicto
end_ol grestore 
gsave 20.783848 7.957130 translate 0.035278 -0.035278 scale
start_ol
1984 2304 moveto
1912 2337 1828 2352 conicto
1744 2368 1642 2368 conicto
1282 2368 1089 2127 conicto
896 1887 896 1437 conicto
896 0 lineto
448 0 lineto
448 2688 lineto
896 2688 lineto
896 2304 lineto
1030 2531 1245 2641 conicto
1460 2752 1767 2752 conicto
1811 2752 1864 2752 conicto
1917 2752 1982 2752 conicto
1984 2304 lineto
end_ol grestore 
gsave 17.752900 8.757130 translate 0.035278 -0.035278 scale
start_ol
448 3712 moveto
896 3712 lineto
896 0 lineto
448 0 lineto
448 3712 lineto
end_ol grestore 
gsave 17.930229 8.757130 translate 0.035278 -0.035278 scale
start_ol
2752 1480 moveto
2752 1280 lineto
704 1280 lineto
733 811 978 565 conicto
1223 320 1660 320 conicto
1914 320 2152 384 conicto
2390 448 2624 576 conicto
2624 192 lineto
2388 67 2140 1 conicto
1893 -64 1639 -64 conicto
1001 -64 628 309 conicto
256 683 256 1320 conicto
256 1979 613 2365 conicto
970 2752 1576 2752 conicto
2120 2752 2436 2410 conicto
2752 2068 2752 1480 conicto
2304 1600 moveto
2299 1950 2099 2159 conicto
1900 2368 1572 2368 conicto
1200 2368 976 2166 conicto
753 1964 719 1597 conicto
2304 1600 lineto
end_ol grestore 
gsave 18.324855 8.757130 translate 0.035278 -0.035278 scale
start_ol
448 3712 moveto
896 3712 lineto
896 1529 lineto
2196 2688 lineto
2752 2688 lineto
1346 1430 lineto
2816 0 lineto
2246 0 lineto
896 1313 lineto
896 0 lineto
448 0 lineto
448 3712 lineto
end_ol grestore 
gsave 18.694502 8.757130 translate 0.035278 -0.035278 scale
start_ol
2112 2560 moveto
2112 2176 lineto
1932 2272 1738 2320 conicto
1544 2368 1336 2368 conicto
1020 2368 862 2269 conicto
704 2170 704 1972 conicto
704 1821 814 1735 conicto
925 1649 1260 1571 conicto
1403 1538 lineto
1857 1438 2048 1255 conicto
2240 1072 2240 744 conicto
2240 371 1954 153 conicto
1668 -64 1167 -64 conicto
958 -64 732 -16 conicto
506 32 256 128 conicto
256 576 lineto
491 448 719 384 conicto
947 320 1170 320 conicto
1470 320 1631 425 conicto
1792 531 1792 722 conicto
1792 900 1678 994 conicto
1564 1089 1177 1177 conicto
1032 1212 lineto
621 1298 438 1476 conicto
256 1654 256 1964 conicto
256 2341 520 2546 conicto
784 2752 1269 2752 conicto
1509 2752 1721 2704 conicto
1933 2656 2112 2560 conicto
end_ol grestore 
gsave 19.026687 8.757130 translate 0.035278 -0.035278 scale
start_ol
1542 -238 moveto
1360 -726 1187 -875 conicto
1015 -1024 726 -1024 conicto
384 -1024 lineto
384 -640 lineto
636 -640 lineto
813 -640 910 -555 conicto
1008 -470 1127 -155 conicto
1204 46 lineto
128 2688 lineto
603 2688 lineto
1418 586 lineto
2234 2688 lineto
2688 2688 lineto
1542 -238 lineto
end_ol grestore 
gsave 19.406331 8.757130 translate 0.035278 -0.035278 scale
start_ol
448 3712 moveto
896 3712 lineto
896 1529 lineto
2196 2688 lineto
2752 2688 lineto
1346 1430 lineto
2816 0 lineto
2246 0 lineto
896 1313 lineto
896 0 lineto
448 0 lineto
448 3712 lineto
end_ol grestore 
gsave 19.765991 8.757130 translate 0.035278 -0.035278 scale
start_ol
1622 1344 moveto
1104 1344 904 1225 conicto
704 1106 704 818 conicto
704 589 854 454 conicto
1004 320 1262 320 conicto
1618 320 1833 572 conicto
2048 825 2048 1244 conicto
2048 1344 lineto
1622 1344 lineto
2496 1513 moveto
2496 0 lineto
2048 0 lineto
2048 384 lineto
1900 154 1679 45 conicto
1458 -64 1138 -64 conicto
733 -64 494 162 conicto
256 389 256 769 conicto
256 1213 555 1438 conicto
854 1664 1448 1664 conicto
2048 1664 lineto
2048 1712 lineto
2048 2025 1851 2196 conicto
1655 2368 1300 2368 conicto
1074 2368 860 2320 conicto
646 2272 448 2176 conicto
448 2560 lineto
687 2656 912 2704 conicto
1138 2752 1351 2752 conicto
1927 2752 2211 2444 conicto
2496 2137 2496 1513 conicto
end_ol grestore 
gsave 20.158120 8.757130 translate 0.035278 -0.035278 scale
start_ol
448 3712 moveto
896 3712 lineto
896 0 lineto
448 0 lineto
448 3712 lineto
end_ol grestore 
gsave 20.335448 8.757130 translate 0.035278 -0.035278 scale
start_ol
2688 1646 moveto
2688 0 lineto
2240 0 lineto
2240 1632 lineto
2240 2001 2093 2184 conicto
1947 2368 1654 2368 conicto
1302 2368 1099 2146 conicto
896 1925 896 1542 conicto
896 0 lineto
448 0 lineto
448 2688 lineto
896 2688 lineto
896 2304 lineto
1053 2529 1266 2640 conicto
1479 2752 1757 2752 conicto
2217 2752 2452 2471 conicto
2688 2191 2688 1646 conicto
end_ol grestore 
gsave 20.740062 8.757130 translate 0.035278 -0.035278 scale
start_ol
1542 -238 moveto
1360 -726 1187 -875 conicto
1015 -1024 726 -1024 conicto
384 -1024 lineto
384 -640 lineto
636 -640 lineto
813 -640 910 -555 conicto
1008 -470 1127 -155 conicto
1204 46 lineto
128 2688 lineto
603 2688 lineto
1418 586 lineto
2234 2688 lineto
2688 2688 lineto
1542 -238 lineto
end_ol grestore 
1.000000 1.000000 1.000000 srgb
n 38.060000 6.300000 m 38.060000 10.000000 l 46.060000 10.000000 l 46.060000 6.300000 l f
0.100000 slw
[] 0 sd
[] 0 sd
0 slj
0.000000 0.000000 0.000000 srgb
n 38.060000 6.300000 m 38.060000 10.000000 l 46.060000 10.000000 l 46.060000 6.300000 l cp s
1.000000 1.000000 1.000000 srgb
n 26.957500 14.535400 m 26.957500 18.235400 l 34.957500 18.235400 l 34.957500 14.535400 l f
0.100000 slw
[] 0 sd
[] 0 sd
0 slj
0.000000 0.000000 0.000000 srgb
n 26.957500 14.535400 m 26.957500 18.235400 l 34.957500 18.235400 l 34.957500 14.535400 l cp s
0.100000 slw
[] 0 sd
[] 0 sd
0 slc
n 23.437900 7.237130 m 37.573197 7.225404 l s
[] 0 sd
0 slj
0 slc
n 37.948197 7.225093 m 37.448404 7.475507 l 37.573197 7.225404 l 37.447989 6.975508 l ef
n 37.948197 7.225093 m 37.448404 7.475507 l 37.573197 7.225404 l 37.447989 6.975508 l cp s
0.100000 slw
[] 0 sd
[] 0 sd
0 slc
n 38.060000 9.075000 m 23.924703 9.086726 l s
[] 0 sd
0 slj
0 slc
n 23.549703 9.087037 m 24.049496 8.836623 l 23.924703 9.086726 l 24.049911 9.336622 l ef
n 23.549703 9.087037 m 24.049496 8.836623 l 23.924703 9.086726 l 24.049911 9.336622 l cp s
0.100000 slw
[] 0 sd
[] 0 sd
0 slc
n 9.778830 8.191670 m 14.951103 8.164671 l s
[] 0 sd
0 slj
0 slc
n 15.326098 8.162714 m 14.827410 8.415320 l 14.951103 8.164671 l 14.824800 7.915327 l ef
n 15.326098 8.162714 m 14.827410 8.415320 l 14.951103 8.164671 l 14.824800 7.915327 l cp s
0.100000 slw
[] 0 sd
[] 0 sd
0 slc
n 46.060000 8.150000 m 54.913297 8.146389 l s
[] 0 sd
0 slj
0 slc
n 55.288297 8.146236 m 54.788399 8.396440 l 54.913297 8.146389 l 54.788195 7.896440 l ef
n 55.288297 8.146236 m 54.788399 8.396440 l 54.913297 8.146389 l 54.788195 7.896440 l cp s
0.100000 slw
[] 0 sd
[] 0 sd
0 slc
n 21.437900 10.012100 m 28.540352 14.284471 l s
[] 0 sd
0 slj
0 slc
n 28.861694 14.477770 m 28.304373 14.434266 l 28.540352 14.284471 l 28.562104 14.005810 l ef
n 28.861694 14.477770 m 28.304373 14.434266 l 28.540352 14.284471 l 28.562104 14.005810 l cp s
0.100000 slw
[] 0 sd
[] 0 sd
0 slc
n 28.957500 14.535400 m 21.855048 10.263029 l s
[] 0 sd
0 slj
0 slc
n 21.533706 10.069730 m 22.091027 10.113234 l 21.855048 10.263029 l 21.833296 10.541690 l ef
n 21.533706 10.069730 m 22.091027 10.113234 l 21.855048 10.263029 l 21.833296 10.541690 l cp s
0.100000 slw
[] 0 sd
[] 0 sd
0 slc
n 32.957500 14.535400 m 39.649712 10.261995 l s
[] 0 sd
0 slj
0 slc
n 39.965770 10.060172 m 39.678908 10.539975 l 39.649712 10.261995 l 39.409811 10.118564 l ef
n 39.965770 10.060172 m 39.678908 10.539975 l 39.649712 10.261995 l 39.409811 10.118564 l cp s
0.100000 slw
[] 0 sd
[] 0 sd
0 slc
n 40.060000 10.000000 m 33.367788 14.273405 l s
[] 0 sd
0 slj
0 slc
n 33.051730 14.475228 m 33.338592 13.995425 l 33.367788 14.273405 l 33.607689 14.416836 l ef
n 33.051730 14.475228 m 33.338592 13.995425 l 33.367788 14.273405 l 33.607689 14.416836 l cp s
gsave 10.250100 9.046190 translate 0.035278 -0.035278 scale
start_ol
1024 448 moveto
1024 -1152 lineto
512 -1152 lineto
512 3072 lineto
1024 3072 lineto
1024 2624 lineto
1183 2884 1425 3010 conicto
1668 3136 2006 3136 conicto
2565 3136 2914 2695 conicto
3264 2254 3264 1536 conicto
3264 818 2914 377 conicto
2565 -64 2006 -64 conicto
1668 -64 1425 62 conicto
1183 188 1024 448 conicto
2752 1536 moveto
2752 2075 2521 2381 conicto
2291 2688 1888 2688 conicto
1485 2688 1254 2381 conicto
1024 2075 1024 1536 conicto
1024 997 1254 690 conicto
1485 384 1888 384 conicto
2291 384 2521 690 conicto
2752 997 2752 1536 conicto
end_ol grestore 
gsave 10.714659 9.046190 translate 0.035278 -0.035278 scale
start_ol
2304 2624 moveto
2220 2657 2120 2672 conicto
2021 2688 1902 2688 conicto
1478 2688 1251 2406 conicto
1024 2124 1024 1597 conicto
1024 0 lineto
512 0 lineto
512 3072 lineto
1024 3072 lineto
1024 2560 lineto
1182 2852 1434 2994 conicto
1687 3136 2049 3136 conicto
2100 3136 2162 3136 conicto
2225 3136 2301 3136 conicto
2304 2624 lineto
end_ol grestore 
gsave 11.001889 9.046190 translate 0.035278 -0.035278 scale
start_ol
1729 2688 moveto
1314 2688 1073 2380 conicto
832 2072 832 1536 conicto
832 1000 1072 692 conicto
1312 384 1729 384 conicto
2142 384 2383 693 conicto
2624 1003 2624 1536 conicto
2624 2067 2383 2377 conicto
2142 2688 1729 2688 conicto
1728 3136 moveto
2385 3136 2760 2711 conicto
3136 2287 3136 1536 conicto
3136 788 2760 362 conicto
2385 -64 1728 -64 conicto
1068 -64 694 362 conicto
320 788 320 1536 conicto
320 2287 694 2711 conicto
1068 3136 1728 3136 conicto
end_ol grestore 
gsave 11.451465 9.046190 translate 0.035278 -0.035278 scale
start_ol
2560 1567 moveto
2560 2101 2332 2394 conicto
2105 2688 1695 2688 conicto
1287 2688 1059 2394 conicto
832 2101 832 1567 conicto
832 1035 1059 741 conicto
1287 448 1695 448 conicto
2105 448 2332 741 conicto
2560 1035 2560 1567 conicto
3072 404 moveto
3072 -384 2724 -768 conicto
2377 -1152 1661 -1152 conicto
1396 -1152 1160 -1105 conicto
925 -1058 704 -960 conicto
704 -448 lineto
924 -579 1139 -641 conicto
1354 -704 1578 -704 conicto
2070 -704 2315 -452 conicto
2560 -201 2560 308 conicto
2560 512 lineto
2404 255 2160 127 conicto
1916 0 1576 0 conicto
1011 0 665 429 conicto
320 859 320 1567 conicto
320 2277 665 2706 conicto
1011 3136 1576 3136 conicto
1916 3136 2160 3008 conicto
2404 2881 2560 2624 conicto
2560 3072 lineto
3072 3072 lineto
3072 404 lineto
end_ol grestore 
gsave 11.916024 9.046190 translate 0.035278 -0.035278 scale
start_ol
2304 2624 moveto
2220 2657 2120 2672 conicto
2021 2688 1902 2688 conicto
1478 2688 1251 2406 conicto
1024 2124 1024 1597 conicto
1024 0 lineto
512 0 lineto
512 3072 lineto
1024 3072 lineto
1024 2560 lineto
1182 2852 1434 2994 conicto
1687 3136 2049 3136 conicto
2100 3136 2162 3136 conicto
2225 3136 2301 3136 conicto
2304 2624 lineto
end_ol grestore 
gsave 12.218236 9.046190 translate 0.035278 -0.035278 scale
start_ol
1882 1536 moveto
1289 1536 1060 1402 conicto
832 1268 832 944 conicto
832 686 1003 535 conicto
1175 384 1470 384 conicto
1876 384 2122 667 conicto
2368 951 2368 1422 conicto
2368 1536 lineto
1882 1536 lineto
2880 1739 moveto
2880 0 lineto
2368 0 lineto
2368 448 lineto
2199 186 1946 61 conicto
1693 -64 1328 -64 conicto
866 -64 593 196 conicto
320 456 320 893 conicto
320 1402 662 1661 conicto
1004 1920 1682 1920 conicto
2368 1920 lineto
2368 1968 lineto
2368 2312 2140 2500 conicto
1912 2688 1500 2688 conicto
1238 2688 989 2624 conicto
741 2560 512 2432 conicto
512 2880 lineto
789 3008 1049 3072 conicto
1310 3136 1556 3136 conicto
2222 3136 2551 2789 conicto
2880 2443 2880 1739 conicto
end_ol grestore 
gsave 12.667813 9.046190 translate 0.035278 -0.035278 scale
start_ol
2922 2449 moveto
3111 2801 3374 2968 conicto
3637 3136 3993 3136 conicto
4472 3136 4732 2796 conicto
4992 2456 4992 1829 conicto
4992 0 lineto
4480 0 lineto
4480 1813 lineto
4480 2257 4324 2472 conicto
4169 2688 3850 2688 conicto
3461 2688 3234 2426 conicto
3008 2165 3008 1713 conicto
3008 0 lineto
2496 0 lineto
2496 1813 lineto
2496 2260 2340 2474 conicto
2185 2688 1861 2688 conicto
1477 2688 1250 2425 conicto
1024 2162 1024 1713 conicto
1024 0 lineto
512 0 lineto
512 3072 lineto
1024 3072 lineto
1024 2560 lineto
1196 2855 1437 2995 conicto
1678 3136 2009 3136 conicto
2342 3136 2576 2960 conicto
2810 2784 2922 2449 conicto
end_ol grestore 
gsave 13.382138 9.046190 translate 0.035278 -0.035278 scale
start_ol
end_ol grestore 
gsave 10.250100 9.963412 translate 0.035278 -0.035278 scale
start_ol
1964 4480 moveto
2496 4480 lineto
1625 3456 lineto
1216 3456 lineto
1964 4480 lineto
320 3072 moveto
2688 3072 lineto
2688 2608 lineto
813 384 lineto
2688 384 lineto
2688 0 lineto
256 0 lineto
256 464 lineto
2127 2688 lineto
320 2688 lineto
320 3072 lineto
end_ol grestore 
gsave 10.634738 9.963412 translate 0.035278 -0.035278 scale
start_ol
2304 2624 moveto
2220 2657 2120 2672 conicto
2021 2688 1902 2688 conicto
1478 2688 1251 2406 conicto
1024 2124 1024 1597 conicto
1024 0 lineto
512 0 lineto
512 3072 lineto
1024 3072 lineto
1024 2560 lineto
1182 2852 1434 2994 conicto
1687 3136 2049 3136 conicto
2100 3136 2162 3136 conicto
2225 3136 2301 3136 conicto
2304 2624 lineto
end_ol grestore 
gsave 10.921968 9.963412 translate 0.035278 -0.035278 scale
start_ol
1729 2688 moveto
1314 2688 1073 2380 conicto
832 2072 832 1536 conicto
832 1000 1072 692 conicto
1312 384 1729 384 conicto
2142 384 2383 693 conicto
2624 1003 2624 1536 conicto
2624 2067 2383 2377 conicto
2142 2688 1729 2688 conicto
1728 3136 moveto
2385 3136 2760 2711 conicto
3136 2287 3136 1536 conicto
3136 788 2760 362 conicto
2385 -64 1728 -64 conicto
1068 -64 694 362 conicto
320 788 320 1536 conicto
320 2287 694 2711 conicto
1068 3136 1728 3136 conicto
2092 4480 moveto
2624 4480 lineto
1753 3456 lineto
1344 3456 lineto
2092 4480 lineto
end_ol grestore 
gsave 11.371545 9.963412 translate 0.035278 -0.035278 scale
start_ol
2560 2624 moveto
2560 4224 lineto
3072 4224 lineto
3072 0 lineto
2560 0 lineto
2560 448 lineto
2401 188 2158 62 conicto
1916 -64 1576 -64 conicto
1019 -64 669 377 conicto
320 818 320 1536 conicto
320 2254 669 2695 conicto
1019 3136 1576 3136 conicto
1916 3136 2158 3010 conicto
2401 2884 2560 2624 conicto
832 1536 moveto
832 997 1062 690 conicto
1292 384 1695 384 conicto
2097 384 2328 690 conicto
2560 997 2560 1536 conicto
2560 2075 2328 2381 conicto
2097 2688 1695 2688 conicto
1292 2688 1062 2381 conicto
832 2075 832 1536 conicto
end_ol grestore 
gsave 11.836103 9.963412 translate 0.035278 -0.035278 scale
start_ol
512 4224 moveto
1024 4224 lineto
1024 2590 lineto
1342 2834 lineto
1536 2546 lineto
1024 2163 lineto
1024 0 lineto
512 0 lineto
512 1808 lineto
192 1569 lineto
0 1857 lineto
512 2240 lineto
512 4224 lineto
end_ol grestore 
gsave 12.043404 9.963412 translate 0.035278 -0.035278 scale
start_ol
1729 2688 moveto
1314 2688 1073 2380 conicto
832 2072 832 1536 conicto
832 1000 1072 692 conicto
1312 384 1729 384 conicto
2142 384 2383 693 conicto
2624 1003 2624 1536 conicto
2624 2067 2383 2377 conicto
2142 2688 1729 2688 conicto
1728 3136 moveto
2385 3136 2760 2711 conicto
3136 2287 3136 1536 conicto
3136 788 2760 362 conicto
2385 -64 1728 -64 conicto
1068 -64 694 362 conicto
320 788 320 1536 conicto
320 2287 694 2711 conicto
1068 3136 1728 3136 conicto
end_ol grestore 
gsave 12.492981 9.963412 translate 0.035278 -0.035278 scale
start_ol
256 3072 moveto
757 3072 lineto
1384 675 lineto
2008 3072 lineto
2600 3072 lineto
3226 675 lineto
3851 3072 lineto
4352 3072 lineto
3554 0 lineto
2962 0 lineto
2305 2518 lineto
1646 0 lineto
1054 0 lineto
256 3072 lineto
end_ol grestore 
gsave 13.092420 9.963412 translate 0.035278 -0.035278 scale
start_ol
1799 -248 moveto
1587 -809 1386 -980 conicto
1185 -1152 848 -1152 conicto
448 -1152 lineto
448 -704 lineto
742 -704 lineto
948 -704 1062 -611 conicto
1177 -518 1315 -171 conicto
1405 59 lineto
192 3072 lineto
703 3072 lineto
1655 669 lineto
2606 3072 lineto
3136 3072 lineto
1799 -248 lineto
end_ol grestore 
gsave 29.865000 16.206650 translate 0.035278 -0.035278 scale
start_ol
-64 3520 moveto
3008 3520 lineto
3008 3136 lineto
1728 3136 lineto
1728 0 lineto
1216 0 lineto
1216 3136 lineto
-64 3136 lineto
-64 3520 lineto
end_ol grestore 
gsave 30.149733 16.206650 translate 0.035278 -0.035278 scale
start_ol
1622 1344 moveto
1104 1344 904 1225 conicto
704 1106 704 818 conicto
704 589 854 454 conicto
1004 320 1262 320 conicto
1618 320 1833 572 conicto
2048 825 2048 1244 conicto
2048 1344 lineto
1622 1344 lineto
2496 1513 moveto
2496 0 lineto
2048 0 lineto
2048 384 lineto
1900 154 1679 45 conicto
1458 -64 1138 -64 conicto
733 -64 494 162 conicto
256 389 256 769 conicto
256 1213 555 1438 conicto
854 1664 1448 1664 conicto
2048 1664 lineto
2048 1712 lineto
2048 2025 1851 2196 conicto
1655 2368 1300 2368 conicto
1074 2368 860 2320 conicto
646 2272 448 2176 conicto
448 2560 lineto
687 2656 912 2704 conicto
1138 2752 1351 2752 conicto
1927 2752 2211 2444 conicto
2496 2137 2496 1513 conicto
end_ol grestore 
gsave 30.541862 16.206650 translate 0.035278 -0.035278 scale
start_ol
2368 1344 moveto
2368 1823 2171 2095 conicto
1975 2368 1632 2368 conicto
1289 2368 1092 2095 conicto
896 1823 896 1344 conicto
896 865 1092 592 conicto
1289 320 1632 320 conicto
1975 320 2171 592 conicto
2368 865 2368 1344 conicto
896 2304 moveto
1032 2531 1240 2641 conicto
1448 2752 1737 2752 conicto
2217 2752 2516 2364 conicto
2816 1976 2816 1344 conicto
2816 712 2516 324 conicto
2217 -64 1737 -64 conicto
1448 -64 1240 46 conicto
1032 157 896 384 conicto
896 0 lineto
448 0 lineto
448 3712 lineto
896 3712 lineto
896 2304 lineto
end_ol grestore 
gsave 30.948981 16.206650 translate 0.035278 -0.035278 scale
start_ol
448 3712 moveto
896 3712 lineto
896 0 lineto
448 0 lineto
448 3712 lineto
end_ol grestore 
gsave 31.126310 16.206650 translate 0.035278 -0.035278 scale
start_ol
448 2688 moveto
896 2688 lineto
896 0 lineto
448 0 lineto
448 2688 lineto
448 3712 moveto
896 3712 lineto
896 3136 lineto
448 3136 lineto
448 3712 lineto
end_ol grestore 
gsave 31.303639 16.206650 translate 0.035278 -0.035278 scale
start_ol
2368 2560 moveto
2368 2176 lineto
2180 2272 1991 2320 conicto
1803 2368 1611 2368 conicto
1180 2368 942 2099 conicto
704 1830 704 1344 conicto
704 858 942 589 conicto
1180 320 1611 320 conicto
1803 320 1991 368 conicto
2180 416 2368 512 conicto
2368 128 lineto
2184 32 1987 -16 conicto
1791 -64 1569 -64 conicto
966 -64 611 316 conicto
256 697 256 1344 conicto
256 2000 615 2376 conicto
974 2752 1598 2752 conicto
1801 2752 1994 2704 conicto
2187 2656 2368 2560 conicto
end_ol grestore 
gsave 31.655807 16.206650 translate 0.035278 -0.035278 scale
start_ol
1622 1344 moveto
1104 1344 904 1225 conicto
704 1106 704 818 conicto
704 589 854 454 conicto
1004 320 1262 320 conicto
1618 320 1833 572 conicto
2048 825 2048 1244 conicto
2048 1344 lineto
1622 1344 lineto
2496 1513 moveto
2496 0 lineto
2048 0 lineto
2048 384 lineto
1900 154 1679 45 conicto
1458 -64 1138 -64 conicto
733 -64 494 162 conicto
256 389 256 769 conicto
256 1213 555 1438 conicto
854 1664 1448 1664 conicto
2048 1664 lineto
2048 1712 lineto
2048 2025 1851 2196 conicto
1655 2368 1300 2368 conicto
1074 2368 860 2320 conicto
646 2272 448 2176 conicto
448 2560 lineto
687 2656 912 2704 conicto
1138 2752 1351 2752 conicto
1927 2752 2211 2444 conicto
2496 2137 2496 1513 conicto
end_ol grestore 
gsave 29.712500 17.006650 translate 0.035278 -0.035278 scale
start_ol
2112 2560 moveto
2112 2176 lineto
1932 2272 1738 2320 conicto
1544 2368 1336 2368 conicto
1020 2368 862 2269 conicto
704 2170 704 1972 conicto
704 1821 814 1735 conicto
925 1649 1260 1571 conicto
1403 1538 lineto
1857 1438 2048 1255 conicto
2240 1072 2240 744 conicto
2240 371 1954 153 conicto
1668 -64 1167 -64 conicto
958 -64 732 -16 conicto
506 32 256 128 conicto
256 576 lineto
491 448 719 384 conicto
947 320 1170 320 conicto
1470 320 1631 425 conicto
1792 531 1792 722 conicto
1792 900 1678 994 conicto
1564 1089 1177 1177 conicto
1032 1212 lineto
621 1298 438 1476 conicto
256 1654 256 1964 conicto
256 2341 520 2546 conicto
784 2752 1269 2752 conicto
1509 2752 1721 2704 conicto
1933 2656 2112 2560 conicto
end_ol grestore 
gsave 30.044684 17.006650 translate 0.035278 -0.035278 scale
start_ol
1542 -238 moveto
1360 -726 1187 -875 conicto
1015 -1024 726 -1024 conicto
384 -1024 lineto
384 -640 lineto
636 -640 lineto
813 -640 910 -555 conicto
1008 -470 1127 -155 conicto
1204 46 lineto
128 2688 lineto
603 2688 lineto
1418 586 lineto
2234 2688 lineto
2688 2688 lineto
1542 -238 lineto
end_ol grestore 
gsave 30.424328 17.006650 translate 0.035278 -0.035278 scale
start_ol
2549 2204 moveto
2714 2485 2942 2618 conicto
3171 2752 3482 2752 conicto
3899 2752 4125 2464 conicto
4352 2177 4352 1646 conicto
4352 0 lineto
3904 0 lineto
3904 1632 lineto
3904 2006 3769 2187 conicto
3634 2368 3356 2368 conicto
3017 2368 2820 2146 conicto
2624 1925 2624 1542 conicto
2624 0 lineto
2176 0 lineto
2176 1632 lineto
2176 2008 2041 2188 conicto
1906 2368 1624 2368 conicto
1289 2368 1092 2145 conicto
896 1922 896 1542 conicto
896 0 lineto
448 0 lineto
448 2688 lineto
896 2688 lineto
896 2304 lineto
1046 2534 1255 2643 conicto
1465 2752 1753 2752 conicto
2044 2752 2247 2611 conicto
2451 2471 2549 2204 conicto
end_ol grestore 
gsave 31.046240 17.006650 translate 0.035278 -0.035278 scale
start_ol
2368 1344 moveto
2368 1823 2171 2095 conicto
1975 2368 1632 2368 conicto
1289 2368 1092 2095 conicto
896 1823 896 1344 conicto
896 865 1092 592 conicto
1289 320 1632 320 conicto
1975 320 2171 592 conicto
2368 865 2368 1344 conicto
896 2304 moveto
1032 2531 1240 2641 conicto
1448 2752 1737 2752 conicto
2217 2752 2516 2364 conicto
2816 1976 2816 1344 conicto
2816 712 2516 324 conicto
2217 -64 1737 -64 conicto
1448 -64 1240 46 conicto
1032 157 896 384 conicto
896 0 lineto
448 0 lineto
448 3712 lineto
896 3712 lineto
896 2304 lineto
end_ol grestore 
gsave 31.453359 17.006650 translate 0.035278 -0.035278 scale
start_ol
1473 2368 moveto
1117 2368 910 2094 conicto
704 1820 704 1344 conicto
704 868 909 594 conicto
1115 320 1473 320 conicto
1827 320 2033 595 conicto
2240 870 2240 1344 conicto
2240 1816 2033 2092 conicto
1827 2368 1473 2368 conicto
1472 2752 moveto
2040 2752 2364 2378 conicto
2688 2005 2688 1344 conicto
2688 685 2364 310 conicto
2040 -64 1472 -64 conicto
902 -64 579 310 conicto
256 685 256 1344 conicto
256 2005 579 2378 conicto
902 2752 1472 2752 conicto
end_ol grestore 
gsave 31.845488 17.006650 translate 0.035278 -0.035278 scale
start_ol
448 3712 moveto
896 3712 lineto
896 0 lineto
448 0 lineto
448 3712 lineto
end_ol grestore 
gsave 32.022817 17.006650 translate 0.035278 -0.035278 scale
start_ol
448 2688 moveto
896 2688 lineto
896 0 lineto
448 0 lineto
448 2688 lineto
448 3712 moveto
896 3712 lineto
896 3136 lineto
448 3136 lineto
448 3712 lineto
end_ol grestore 
gsave 40.448750 7.971250 translate 0.035278 -0.035278 scale
start_ol
1696 3047 moveto
1042 1280 lineto
2352 1280 lineto
1696 3047 lineto
1424 3520 moveto
1970 3520 lineto
3328 0 lineto
2827 0 lineto
2502 896 lineto
897 896 lineto
572 0 lineto
64 0 lineto
1424 3520 lineto
end_ol grestore 
gsave 40.885842 7.971250 translate 0.035278 -0.035278 scale
start_ol
2688 1646 moveto
2688 0 lineto
2240 0 lineto
2240 1632 lineto
2240 2001 2093 2184 conicto
1947 2368 1654 2368 conicto
1302 2368 1099 2146 conicto
896 1925 896 1542 conicto
896 0 lineto
448 0 lineto
448 2688 lineto
896 2688 lineto
896 2304 lineto
1053 2529 1266 2640 conicto
1479 2752 1757 2752 conicto
2217 2752 2452 2471 conicto
2688 2191 2688 1646 conicto
end_ol grestore 
gsave 41.290456 7.971250 translate 0.035278 -0.035278 scale
start_ol
1622 1344 moveto
1104 1344 904 1225 conicto
704 1106 704 818 conicto
704 589 854 454 conicto
1004 320 1262 320 conicto
1618 320 1833 572 conicto
2048 825 2048 1244 conicto
2048 1344 lineto
1622 1344 lineto
2496 1513 moveto
2496 0 lineto
2048 0 lineto
2048 384 lineto
1900 154 1679 45 conicto
1458 -64 1138 -64 conicto
733 -64 494 162 conicto
256 389 256 769 conicto
256 1213 555 1438 conicto
854 1664 1448 1664 conicto
2048 1664 lineto
2048 1712 lineto
2048 2025 1851 2196 conicto
1655 2368 1300 2368 conicto
1074 2368 860 2320 conicto
646 2272 448 2176 conicto
448 2560 lineto
687 2656 912 2704 conicto
1138 2752 1351 2752 conicto
1927 2752 2211 2444 conicto
2496 2137 2496 1513 conicto
end_ol grestore 
gsave 41.682585 7.971250 translate 0.035278 -0.035278 scale
start_ol
448 3712 moveto
896 3712 lineto
896 0 lineto
448 0 lineto
448 3712 lineto
end_ol grestore 
gsave 41.859913 7.971250 translate 0.035278 -0.035278 scale
start_ol
448 2688 moveto
896 2688 lineto
896 0 lineto
448 0 lineto
448 2688 lineto
448 3712 moveto
896 3712 lineto
896 3136 lineto
448 3136 lineto
448 3712 lineto
end_ol grestore 
gsave 42.037242 7.971250 translate 0.035278 -0.035278 scale
start_ol
256 2688 moveto
2304 2688 lineto
2304 2279 lineto
682 320 lineto
2304 320 lineto
2304 0 lineto
192 0 lineto
192 409 lineto
1819 2368 lineto
256 2368 lineto
256 2688 lineto
end_ol grestore 
gsave 42.371924 7.971250 translate 0.035278 -0.035278 scale
start_ol
1622 1344 moveto
1104 1344 904 1225 conicto
704 1106 704 818 conicto
704 589 854 454 conicto
1004 320 1262 320 conicto
1618 320 1833 572 conicto
2048 825 2048 1244 conicto
2048 1344 lineto
1622 1344 lineto
2496 1513 moveto
2496 0 lineto
2048 0 lineto
2048 384 lineto
1900 154 1679 45 conicto
1458 -64 1138 -64 conicto
733 -64 494 162 conicto
256 389 256 769 conicto
256 1213 555 1438 conicto
854 1664 1448 1664 conicto
2048 1664 lineto
2048 1712 lineto
2048 2025 1851 2196 conicto
1655 2368 1300 2368 conicto
1074 2368 860 2320 conicto
646 2272 448 2176 conicto
448 2560 lineto
687 2656 912 2704 conicto
1138 2752 1351 2752 conicto
1927 2752 2211 2444 conicto
2496 2137 2496 1513 conicto
end_ol grestore 
gsave 42.764053 7.971250 translate 0.035278 -0.035278 scale
start_ol
896 3456 moveto
896 2688 lineto
1792 2688 lineto
1792 2368 lineto
896 2368 lineto
896 902 lineto
896 572 984 478 conicto
1073 384 1345 384 conicto
1792 384 lineto
1792 0 lineto
1345 0 lineto
836 0 642 194 conicto
448 389 448 902 conicto
448 2368 lineto
128 2368 lineto
128 2688 lineto
448 2688 lineto
448 3456 lineto
896 3456 lineto
end_ol grestore 
gsave 43.013819 7.971250 translate 0.035278 -0.035278 scale
start_ol
1473 2368 moveto
1117 2368 910 2094 conicto
704 1820 704 1344 conicto
704 868 909 594 conicto
1115 320 1473 320 conicto
1827 320 2033 595 conicto
2240 870 2240 1344 conicto
2240 1816 2033 2092 conicto
1827 2368 1473 2368 conicto
1472 2752 moveto
2040 2752 2364 2378 conicto
2688 2005 2688 1344 conicto
2688 685 2364 310 conicto
2040 -64 1472 -64 conicto
902 -64 579 310 conicto
256 685 256 1344 conicto
256 2005 579 2378 conicto
902 2752 1472 2752 conicto
end_ol grestore 
gsave 43.405948 7.971250 translate 0.035278 -0.035278 scale
start_ol
1984 2304 moveto
1912 2337 1828 2352 conicto
1744 2368 1642 2368 conicto
1282 2368 1089 2127 conicto
896 1887 896 1437 conicto
896 0 lineto
448 0 lineto
448 2688 lineto
896 2688 lineto
896 2304 lineto
1030 2531 1245 2641 conicto
1460 2752 1767 2752 conicto
1811 2752 1864 2752 conicto
1917 2752 1982 2752 conicto
1984 2304 lineto
end_ol grestore 
gsave 40.278750 8.771250 translate 0.035278 -0.035278 scale
start_ol
2112 2560 moveto
2112 2176 lineto
1932 2272 1738 2320 conicto
1544 2368 1336 2368 conicto
1020 2368 862 2269 conicto
704 2170 704 1972 conicto
704 1821 814 1735 conicto
925 1649 1260 1571 conicto
1403 1538 lineto
1857 1438 2048 1255 conicto
2240 1072 2240 744 conicto
2240 371 1954 153 conicto
1668 -64 1167 -64 conicto
958 -64 732 -16 conicto
506 32 256 128 conicto
256 576 lineto
491 448 719 384 conicto
947 320 1170 320 conicto
1470 320 1631 425 conicto
1792 531 1792 722 conicto
1792 900 1678 994 conicto
1564 1089 1177 1177 conicto
1032 1212 lineto
621 1298 438 1476 conicto
256 1654 256 1964 conicto
256 2341 520 2546 conicto
784 2752 1269 2752 conicto
1509 2752 1721 2704 conicto
1933 2656 2112 2560 conicto
end_ol grestore 
gsave 40.610934 8.771250 translate 0.035278 -0.035278 scale
start_ol
448 3712 moveto
896 3712 lineto
896 1529 lineto
2196 2688 lineto
2752 2688 lineto
1346 1430 lineto
2816 0 lineto
2246 0 lineto
896 1313 lineto
896 0 lineto
448 0 lineto
448 3712 lineto
end_ol grestore 
gsave 40.980582 8.771250 translate 0.035278 -0.035278 scale
start_ol
448 3712 moveto
896 3712 lineto
896 2276 lineto
1175 2491 lineto
1344 2238 lineto
896 1902 lineto
896 0 lineto
448 0 lineto
448 1589 lineto
168 1379 lineto
0 1632 lineto
448 1968 lineto
448 3712 lineto
end_ol grestore 
gsave 41.162905 8.771250 translate 0.035278 -0.035278 scale
start_ol
1622 1344 moveto
1104 1344 904 1225 conicto
704 1106 704 818 conicto
704 589 854 454 conicto
1004 320 1262 320 conicto
1618 320 1833 572 conicto
2048 825 2048 1244 conicto
2048 1344 lineto
1622 1344 lineto
2496 1513 moveto
2496 0 lineto
2048 0 lineto
2048 384 lineto
1900 154 1679 45 conicto
1458 -64 1138 -64 conicto
733 -64 494 162 conicto
256 389 256 769 conicto
256 1213 555 1438 conicto
854 1664 1448 1664 conicto
2048 1664 lineto
2048 1712 lineto
2048 2025 1851 2196 conicto
1655 2368 1300 2368 conicto
1074 2368 860 2320 conicto
646 2272 448 2176 conicto
448 2560 lineto
687 2656 912 2704 conicto
1138 2752 1351 2752 conicto
1927 2752 2211 2444 conicto
2496 2137 2496 1513 conicto
end_ol grestore 
gsave 41.555034 8.771250 translate 0.035278 -0.035278 scale
start_ol
2176 2304 moveto
2176 3712 lineto
2624 3712 lineto
2624 0 lineto
2176 0 lineto
2176 384 lineto
2040 157 1832 46 conicto
1624 -64 1332 -64 conicto
855 -64 555 324 conicto
256 712 256 1344 conicto
256 1976 555 2364 conicto
855 2752 1332 2752 conicto
1624 2752 1832 2641 conicto
2040 2531 2176 2304 conicto
704 1344 moveto
704 865 900 592 conicto
1096 320 1439 320 conicto
1782 320 1979 592 conicto
2176 865 2176 1344 conicto
2176 1823 1979 2095 conicto
1782 2368 1439 2368 conicto
1096 2368 900 2095 conicto
704 1823 704 1344 conicto
end_ol grestore 
gsave 41.962153 8.771250 translate 0.035278 -0.035278 scale
start_ol
2688 1646 moveto
2688 0 lineto
2240 0 lineto
2240 1632 lineto
2240 2001 2093 2184 conicto
1947 2368 1654 2368 conicto
1302 2368 1099 2146 conicto
896 1925 896 1542 conicto
896 0 lineto
448 0 lineto
448 2688 lineto
896 2688 lineto
896 2304 lineto
1053 2529 1266 2640 conicto
1479 2752 1757 2752 conicto
2217 2752 2452 2471 conicto
2688 2191 2688 1646 conicto
end_ol grestore 
gsave 42.366767 8.771250 translate 0.035278 -0.035278 scale
start_ol
448 2688 moveto
896 2688 lineto
896 0 lineto
448 0 lineto
448 2688 lineto
448 3712 moveto
896 3712 lineto
896 3136 lineto
448 3136 lineto
448 3712 lineto
end_ol grestore 
gsave 42.544096 8.771250 translate 0.035278 -0.035278 scale
start_ol
1473 2368 moveto
1117 2368 910 2094 conicto
704 1820 704 1344 conicto
704 868 909 594 conicto
1115 320 1473 320 conicto
1827 320 2033 595 conicto
2240 870 2240 1344 conicto
2240 1816 2033 2092 conicto
1827 2368 1473 2368 conicto
1472 2752 moveto
2040 2752 2364 2378 conicto
2688 2005 2688 1344 conicto
2688 685 2364 310 conicto
2040 -64 1472 -64 conicto
902 -64 579 310 conicto
256 685 256 1344 conicto
256 2005 579 2378 conicto
902 2752 1472 2752 conicto
end_ol grestore 
gsave 42.936225 8.771250 translate 0.035278 -0.035278 scale
start_ol
192 2688 moveto
631 2688 lineto
1179 590 lineto
1725 2688 lineto
2243 2688 lineto
2791 590 lineto
3337 2688 lineto
3776 2688 lineto
3077 0 lineto
2560 0 lineto
1985 2203 lineto
1408 0 lineto
891 0 lineto
192 2688 lineto
end_ol grestore 
gsave 43.458231 8.771250 translate 0.035278 -0.035278 scale
start_ol
1542 -238 moveto
1360 -726 1187 -875 conicto
1015 -1024 726 -1024 conicto
384 -1024 lineto
384 -640 lineto
636 -640 lineto
813 -640 910 -555 conicto
1008 -470 1127 -155 conicto
1204 46 lineto
128 2688 lineto
603 2688 lineto
1418 586 lineto
2234 2688 lineto
2688 2688 lineto
1542 -238 lineto
end_ol grestore 
gsave 27.372700 7.056065 translate 0.035278 -0.035278 scale
start_ol
2432 2944 moveto
2432 2496 lineto
2227 2592 2007 2640 conicto
1787 2688 1551 2688 conicto
1191 2688 1011 2580 conicto
832 2472 832 2256 conicto
832 2091 962 1997 conicto
1093 1903 1487 1818 conicto
1654 1781 lineto
2181 1665 2402 1454 conicto
2624 1244 2624 867 conicto
2624 437 2291 186 conicto
1959 -64 1378 -64 conicto
1136 -64 873 0 conicto
611 64 320 192 conicto
320 704 lineto
594 544 860 464 conicto
1126 384 1387 384 conicto
1736 384 1924 506 conicto
2112 628 2112 850 conicto
2112 1056 1977 1166 conicto
1843 1276 1388 1377 conicto
1218 1416 lineto
743 1512 531 1710 conicto
320 1909 320 2256 conicto
320 2677 620 2906 conicto
920 3136 1472 3136 conicto
1746 3136 1987 3088 conicto
2228 3040 2432 2944 conicto
end_ol grestore 
gsave 27.754841 7.056065 translate 0.035278 -0.035278 scale
start_ol
1799 -248 moveto
1587 -809 1386 -980 conicto
1185 -1152 848 -1152 conicto
448 -1152 lineto
448 -704 lineto
742 -704 lineto
948 -704 1062 -611 conicto
1177 -518 1315 -171 conicto
1405 59 lineto
192 3072 lineto
703 3072 lineto
1655 669 lineto
2606 3072 lineto
3136 3072 lineto
1799 -248 lineto
end_ol grestore 
gsave 28.189427 7.056065 translate 0.035278 -0.035278 scale
start_ol
2922 2449 moveto
3111 2801 3374 2968 conicto
3637 3136 3993 3136 conicto
4472 3136 4732 2796 conicto
4992 2456 4992 1829 conicto
4992 0 lineto
4480 0 lineto
4480 1813 lineto
4480 2257 4324 2472 conicto
4169 2688 3850 2688 conicto
3461 2688 3234 2426 conicto
3008 2165 3008 1713 conicto
3008 0 lineto
2496 0 lineto
2496 1813 lineto
2496 2260 2340 2474 conicto
2185 2688 1861 2688 conicto
1477 2688 1250 2425 conicto
1024 2162 1024 1713 conicto
1024 0 lineto
512 0 lineto
512 3072 lineto
1024 3072 lineto
1024 2560 lineto
1196 2855 1437 2995 conicto
1678 3136 2009 3136 conicto
2342 3136 2576 2960 conicto
2810 2784 2922 2449 conicto
end_ol grestore 
gsave 28.903753 7.056065 translate 0.035278 -0.035278 scale
start_ol
2752 1536 moveto
2752 2075 2521 2381 conicto
2291 2688 1888 2688 conicto
1485 2688 1254 2381 conicto
1024 2075 1024 1536 conicto
1024 997 1254 690 conicto
1485 384 1888 384 conicto
2291 384 2521 690 conicto
2752 997 2752 1536 conicto
1024 2624 moveto
1183 2884 1425 3010 conicto
1668 3136 2006 3136 conicto
2565 3136 2914 2695 conicto
3264 2254 3264 1536 conicto
3264 818 2914 377 conicto
2565 -64 2006 -64 conicto
1668 -64 1425 62 conicto
1183 188 1024 448 conicto
1024 0 lineto
512 0 lineto
512 4224 lineto
1024 4224 lineto
1024 2624 lineto
end_ol grestore 
gsave 29.368312 7.056065 translate 0.035278 -0.035278 scale
start_ol
1729 2688 moveto
1314 2688 1073 2380 conicto
832 2072 832 1536 conicto
832 1000 1072 692 conicto
1312 384 1729 384 conicto
2142 384 2383 693 conicto
2624 1003 2624 1536 conicto
2624 2067 2383 2377 conicto
2142 2688 1729 2688 conicto
1728 3136 moveto
2385 3136 2760 2711 conicto
3136 2287 3136 1536 conicto
3136 788 2760 362 conicto
2385 -64 1728 -64 conicto
1068 -64 694 362 conicto
320 788 320 1536 conicto
320 2287 694 2711 conicto
1068 3136 1728 3136 conicto
end_ol grestore 
gsave 29.817888 7.056065 translate 0.035278 -0.035278 scale
start_ol
512 4224 moveto
1024 4224 lineto
1024 0 lineto
512 0 lineto
512 4224 lineto
end_ol grestore 
gsave 30.022692 7.056065 translate 0.035278 -0.035278 scale
start_ol
end_ol grestore 
gsave 30.254972 7.056065 translate 0.035278 -0.035278 scale
start_ol
512 4224 moveto
1024 4224 lineto
1024 0 lineto
512 0 lineto
512 4224 lineto
end_ol grestore 
gsave 30.459776 7.056065 translate 0.035278 -0.035278 scale
start_ol
3136 1648 moveto
3136 1408 lineto
832 1408 lineto
865 908 1142 646 conicto
1420 384 1916 384 conicto
2203 384 2472 448 conicto
2742 512 3008 640 conicto
3008 192 lineto
2741 67 2460 1 conicto
2179 -64 1890 -64 conicto
1166 -64 743 360 conicto
320 785 320 1509 conicto
320 2257 723 2696 conicto
1126 3136 1809 3136 conicto
2423 3136 2779 2736 conicto
3136 2336 3136 1648 conicto
2624 1792 moveto
2619 2201 2395 2444 conicto
2172 2688 1804 2688 conicto
1387 2688 1136 2452 conicto
886 2217 848 1790 conicto
2624 1792 lineto
end_ol grestore 
gsave 30.911849 7.056065 translate 0.035278 -0.035278 scale
start_ol
512 4224 moveto
1024 4224 lineto
1024 1747 lineto
2503 3072 lineto
3136 3072 lineto
1536 1635 lineto
3200 0 lineto
2554 0 lineto
1024 1500 lineto
1024 0 lineto
512 0 lineto
512 4224 lineto
end_ol grestore 
gsave 31.336448 7.056065 translate 0.035278 -0.035278 scale
start_ol
2432 2944 moveto
2432 2496 lineto
2227 2592 2007 2640 conicto
1787 2688 1551 2688 conicto
1191 2688 1011 2580 conicto
832 2472 832 2256 conicto
832 2091 962 1997 conicto
1093 1903 1487 1818 conicto
1654 1781 lineto
2181 1665 2402 1454 conicto
2624 1244 2624 867 conicto
2624 437 2291 186 conicto
1959 -64 1378 -64 conicto
1136 -64 873 0 conicto
611 64 320 192 conicto
320 704 lineto
594 544 860 464 conicto
1126 384 1387 384 conicto
1736 384 1924 506 conicto
2112 628 2112 850 conicto
2112 1056 1977 1166 conicto
1843 1276 1388 1377 conicto
1218 1416 lineto
743 1512 531 1710 conicto
320 1909 320 2256 conicto
320 2677 620 2906 conicto
920 3136 1472 3136 conicto
1746 3136 1987 3088 conicto
2228 3040 2432 2944 conicto
end_ol grestore 
gsave 31.718589 7.056065 translate 0.035278 -0.035278 scale
start_ol
1799 -248 moveto
1587 -809 1386 -980 conicto
1185 -1152 848 -1152 conicto
448 -1152 lineto
448 -704 lineto
742 -704 lineto
948 -704 1062 -611 conicto
1177 -518 1315 -171 conicto
1405 59 lineto
192 3072 lineto
703 3072 lineto
1655 669 lineto
2606 3072 lineto
3136 3072 lineto
1799 -248 lineto
end_ol grestore 
gsave 32.153175 7.056065 translate 0.035278 -0.035278 scale
start_ol
512 4224 moveto
1024 4224 lineto
1024 1747 lineto
2503 3072 lineto
3136 3072 lineto
1536 1635 lineto
3200 0 lineto
2554 0 lineto
1024 1500 lineto
1024 0 lineto
512 0 lineto
512 4224 lineto
end_ol grestore 
gsave 32.565288 7.056065 translate 0.035278 -0.035278 scale
start_ol
1882 1536 moveto
1289 1536 1060 1402 conicto
832 1268 832 944 conicto
832 686 1003 535 conicto
1175 384 1470 384 conicto
1876 384 2122 667 conicto
2368 951 2368 1422 conicto
2368 1536 lineto
1882 1536 lineto
2880 1739 moveto
2880 0 lineto
2368 0 lineto
2368 448 lineto
2199 186 1946 61 conicto
1693 -64 1328 -64 conicto
866 -64 593 196 conicto
320 456 320 893 conicto
320 1402 662 1661 conicto
1004 1920 1682 1920 conicto
2368 1920 lineto
2368 1968 lineto
2368 2312 2140 2500 conicto
1912 2688 1500 2688 conicto
1238 2688 989 2624 conicto
741 2560 512 2432 conicto
512 2880 lineto
789 3008 1049 3072 conicto
1310 3136 1556 3136 conicto
2222 3136 2551 2789 conicto
2880 2443 2880 1739 conicto
end_ol grestore 
gsave 33.014865 7.056065 translate 0.035278 -0.035278 scale
start_ol
512 4224 moveto
1024 4224 lineto
1024 0 lineto
512 0 lineto
512 4224 lineto
end_ol grestore 
gsave 33.219669 7.056065 translate 0.035278 -0.035278 scale
start_ol
3072 1829 moveto
3072 0 lineto
2560 0 lineto
2560 1813 lineto
2560 2252 2392 2470 conicto
2225 2688 1891 2688 conicto
1488 2688 1256 2426 conicto
1024 2165 1024 1713 conicto
1024 0 lineto
512 0 lineto
512 3072 lineto
1024 3072 lineto
1024 2560 lineto
1204 2849 1447 2992 conicto
1690 3136 2009 3136 conicto
2533 3136 2802 2804 conicto
3072 2473 3072 1829 conicto
end_ol grestore 
gsave 33.684228 7.056065 translate 0.035278 -0.035278 scale
start_ol
1799 -248 moveto
1587 -809 1386 -980 conicto
1185 -1152 848 -1152 conicto
448 -1152 lineto
448 -704 lineto
742 -704 lineto
948 -704 1062 -611 conicto
1177 -518 1315 -171 conicto
1405 59 lineto
192 3072 lineto
703 3072 lineto
1655 669 lineto
2606 3072 lineto
3136 3072 lineto
1799 -248 lineto
end_ol grestore 
gsave 27.605200 9.763565 translate 0.035278 -0.035278 scale
start_ol
3072 1829 moveto
3072 0 lineto
2560 0 lineto
2560 1813 lineto
2560 2252 2392 2470 conicto
2225 2688 1891 2688 conicto
1488 2688 1256 2426 conicto
1024 2165 1024 1713 conicto
1024 0 lineto
512 0 lineto
512 3072 lineto
1024 3072 lineto
1024 2560 lineto
1204 2849 1447 2992 conicto
1690 3136 2009 3136 conicto
2533 3136 2802 2804 conicto
3072 2473 3072 1829 conicto
end_ol grestore 
gsave 28.069759 9.763565 translate 0.035278 -0.035278 scale
start_ol
1882 1536 moveto
1289 1536 1060 1402 conicto
832 1268 832 944 conicto
832 686 1003 535 conicto
1175 384 1470 384 conicto
1876 384 2122 667 conicto
2368 951 2368 1422 conicto
2368 1536 lineto
1882 1536 lineto
2880 1739 moveto
2880 0 lineto
2368 0 lineto
2368 448 lineto
2199 186 1946 61 conicto
1693 -64 1328 -64 conicto
866 -64 593 196 conicto
320 456 320 893 conicto
320 1402 662 1661 conicto
1004 1920 1682 1920 conicto
2368 1920 lineto
2368 1968 lineto
2368 2312 2140 2500 conicto
1912 2688 1500 2688 conicto
1238 2688 989 2624 conicto
741 2560 512 2432 conicto
512 2880 lineto
789 3008 1049 3072 conicto
1310 3136 1556 3136 conicto
2222 3136 2551 2789 conicto
2880 2443 2880 1739 conicto
end_ol grestore 
gsave 28.519335 9.763565 translate 0.035278 -0.035278 scale
start_ol
2432 2944 moveto
2432 2496 lineto
2227 2592 2007 2640 conicto
1787 2688 1551 2688 conicto
1191 2688 1011 2580 conicto
832 2472 832 2256 conicto
832 2091 962 1997 conicto
1093 1903 1487 1818 conicto
1654 1781 lineto
2181 1665 2402 1454 conicto
2624 1244 2624 867 conicto
2624 437 2291 186 conicto
1959 -64 1378 -64 conicto
1136 -64 873 0 conicto
611 64 320 192 conicto
320 704 lineto
594 544 860 464 conicto
1126 384 1387 384 conicto
1736 384 1924 506 conicto
2112 628 2112 850 conicto
2112 1056 1977 1166 conicto
1843 1276 1388 1377 conicto
1218 1416 lineto
743 1512 531 1710 conicto
320 1909 320 2256 conicto
320 2677 620 2906 conicto
920 3136 1472 3136 conicto
1746 3136 1987 3088 conicto
2228 3040 2432 2944 conicto
end_ol grestore 
gsave 28.901476 9.763565 translate 0.035278 -0.035278 scale
start_ol
1024 3968 moveto
1024 3072 lineto
2048 3072 lineto
2048 2688 lineto
1024 2688 lineto
1024 1033 lineto
1024 660 1125 554 conicto
1226 448 1537 448 conicto
2048 448 lineto
2048 0 lineto
1537 0 lineto
955 0 733 222 conicto
512 445 512 1033 conicto
512 2688 lineto
128 2688 lineto
128 3072 lineto
512 3072 lineto
512 3968 lineto
1024 3968 lineto
end_ol grestore 
gsave 29.188706 9.763565 translate 0.035278 -0.035278 scale
start_ol
3136 1648 moveto
3136 1408 lineto
832 1408 lineto
865 908 1142 646 conicto
1420 384 1916 384 conicto
2203 384 2472 448 conicto
2742 512 3008 640 conicto
3008 192 lineto
2741 67 2460 1 conicto
2179 -64 1890 -64 conicto
1166 -64 743 360 conicto
320 785 320 1509 conicto
320 2257 723 2696 conicto
1126 3136 1809 3136 conicto
2423 3136 2779 2736 conicto
3136 2336 3136 1648 conicto
2624 1792 moveto
2619 2201 2395 2444 conicto
2172 2688 1804 2688 conicto
1387 2688 1136 2452 conicto
886 2217 848 1790 conicto
2624 1792 lineto
2240 0 moveto
2560 0 lineto
2429 -172 2366 -296 conicto
2304 -421 2304 -508 conicto
2304 -638 2379 -703 conicto
2454 -768 2602 -768 conicto
2690 -768 2774 -752 conicto
2859 -736 2944 -704 conicto
2944 -1036 lineto
2840 -1062 2746 -1075 conicto
2653 -1088 2571 -1088 conicto
2236 -1088 2078 -968 conicto
1920 -848 1920 -592 conicto
1920 -460 1998 -315 conicto
2077 -171 2240 0 conicto
end_ol grestore 
gsave 29.640780 9.763565 translate 0.035278 -0.035278 scale
start_ol
1024 448 moveto
1024 -1152 lineto
512 -1152 lineto
512 3072 lineto
1024 3072 lineto
1024 2624 lineto
1183 2884 1425 3010 conicto
1668 3136 2006 3136 conicto
2565 3136 2914 2695 conicto
3264 2254 3264 1536 conicto
3264 818 2914 377 conicto
2565 -64 2006 -64 conicto
1668 -64 1425 62 conicto
1183 188 1024 448 conicto
2752 1536 moveto
2752 2075 2521 2381 conicto
2291 2688 1888 2688 conicto
1485 2688 1254 2381 conicto
1024 2075 1024 1536 conicto
1024 997 1254 690 conicto
1485 384 1888 384 conicto
2291 384 2521 690 conicto
2752 997 2752 1536 conicto
end_ol grestore 
gsave 30.105339 9.763565 translate 0.035278 -0.035278 scale
start_ol
3072 1829 moveto
3072 0 lineto
2560 0 lineto
2560 1813 lineto
2560 2252 2392 2470 conicto
2225 2688 1891 2688 conicto
1488 2688 1256 2426 conicto
1024 2165 1024 1713 conicto
1024 0 lineto
512 0 lineto
512 3072 lineto
1024 3072 lineto
1024 2560 lineto
1204 2849 1447 2992 conicto
1690 3136 2009 3136 conicto
2533 3136 2802 2804 conicto
3072 2473 3072 1829 conicto
end_ol grestore 
gsave 30.569898 9.763565 translate 0.035278 -0.035278 scale
start_ol
1799 -248 moveto
1587 -809 1386 -980 conicto
1185 -1152 848 -1152 conicto
448 -1152 lineto
448 -704 lineto
742 -704 lineto
948 -704 1062 -611 conicto
1177 -518 1315 -171 conicto
1405 59 lineto
192 3072 lineto
703 3072 lineto
1655 669 lineto
2606 3072 lineto
3136 3072 lineto
1799 -248 lineto
end_ol grestore 
gsave 31.004484 9.763565 translate 0.035278 -0.035278 scale
start_ol
end_ol grestore 
gsave 31.236763 9.763565 translate 0.035278 -0.035278 scale
start_ol
2432 2944 moveto
2432 2496 lineto
2227 2592 2007 2640 conicto
1787 2688 1551 2688 conicto
1191 2688 1011 2580 conicto
832 2472 832 2256 conicto
832 2091 962 1997 conicto
1093 1903 1487 1818 conicto
1654 1781 lineto
2181 1665 2402 1454 conicto
2624 1244 2624 867 conicto
2624 437 2291 186 conicto
1959 -64 1378 -64 conicto
1136 -64 873 0 conicto
611 64 320 192 conicto
320 704 lineto
594 544 860 464 conicto
1126 384 1387 384 conicto
1736 384 1924 506 conicto
2112 628 2112 850 conicto
2112 1056 1977 1166 conicto
1843 1276 1388 1377 conicto
1218 1416 lineto
743 1512 531 1710 conicto
320 1909 320 2256 conicto
320 2677 620 2906 conicto
920 3136 1472 3136 conicto
1746 3136 1987 3088 conicto
2228 3040 2432 2944 conicto
end_ol grestore 
gsave 31.618904 9.763565 translate 0.035278 -0.035278 scale
start_ol
1799 -248 moveto
1587 -809 1386 -980 conicto
1185 -1152 848 -1152 conicto
448 -1152 lineto
448 -704 lineto
742 -704 lineto
948 -704 1062 -611 conicto
1177 -518 1315 -171 conicto
1405 59 lineto
192 3072 lineto
703 3072 lineto
1655 669 lineto
2606 3072 lineto
3136 3072 lineto
1799 -248 lineto
end_ol grestore 
gsave 32.053491 9.763565 translate 0.035278 -0.035278 scale
start_ol
2922 2449 moveto
3111 2801 3374 2968 conicto
3637 3136 3993 3136 conicto
4472 3136 4732 2796 conicto
4992 2456 4992 1829 conicto
4992 0 lineto
4480 0 lineto
4480 1813 lineto
4480 2257 4324 2472 conicto
4169 2688 3850 2688 conicto
3461 2688 3234 2426 conicto
3008 2165 3008 1713 conicto
3008 0 lineto
2496 0 lineto
2496 1813 lineto
2496 2260 2340 2474 conicto
2185 2688 1861 2688 conicto
1477 2688 1250 2425 conicto
1024 2162 1024 1713 conicto
1024 0 lineto
512 0 lineto
512 3072 lineto
1024 3072 lineto
1024 2560 lineto
1196 2855 1437 2995 conicto
1678 3136 2009 3136 conicto
2342 3136 2576 2960 conicto
2810 2784 2922 2449 conicto
end_ol grestore 
gsave 32.767816 9.763565 translate 0.035278 -0.035278 scale
start_ol
2752 1536 moveto
2752 2075 2521 2381 conicto
2291 2688 1888 2688 conicto
1485 2688 1254 2381 conicto
1024 2075 1024 1536 conicto
1024 997 1254 690 conicto
1485 384 1888 384 conicto
2291 384 2521 690 conicto
2752 997 2752 1536 conicto
1024 2624 moveto
1183 2884 1425 3010 conicto
1668 3136 2006 3136 conicto
2565 3136 2914 2695 conicto
3264 2254 3264 1536 conicto
3264 818 2914 377 conicto
2565 -64 2006 -64 conicto
1668 -64 1425 62 conicto
1183 188 1024 448 conicto
1024 0 lineto
512 0 lineto
512 4224 lineto
1024 4224 lineto
1024 2624 lineto
end_ol grestore 
gsave 33.232375 9.763565 translate 0.035278 -0.035278 scale
start_ol
1729 2688 moveto
1314 2688 1073 2380 conicto
832 2072 832 1536 conicto
832 1000 1072 692 conicto
1312 384 1729 384 conicto
2142 384 2383 693 conicto
2624 1003 2624 1536 conicto
2624 2067 2383 2377 conicto
2142 2688 1729 2688 conicto
1728 3136 moveto
2385 3136 2760 2711 conicto
3136 2287 3136 1536 conicto
3136 788 2760 362 conicto
2385 -64 1728 -64 conicto
1068 -64 694 362 conicto
320 788 320 1536 conicto
320 2287 694 2711 conicto
1068 3136 1728 3136 conicto
end_ol grestore 
gsave 33.681952 9.763565 translate 0.035278 -0.035278 scale
start_ol
512 4224 moveto
1024 4224 lineto
1024 0 lineto
512 0 lineto
512 4224 lineto
end_ol grestore 
showpage
